2 Explore data – Superimposition and Ricker b
…
Code

dat_maps <- read_csv("data/WGFD Historical redd maps digitized.csv") %>%
  filter(section == "main") %>% 
  mutate(stream = recode(stream, "lower" = "Lower Bar BC",  "upper" = "Upper Bar BC"),
         rpc = rowMeans(select(., min, max))) %>%
  group_by(stream, year) %>%
  summarize(rpc_mean = mean(rpc),
            rpc_025 = quantile(rpc, probs = 0.025, na.rm = TRUE),
            rpc_975 = quantile(rpc, probs = 0.975, na.rm = TRUE)) %>%
  ungroup()
dat_maps

# A tibble: 48 × 5
   stream        year rpc_mean rpc_025 rpc_975
   <chr>        <dbl>    <dbl>   <dbl>   <dbl>
 1 Lower Bar BC  1971     4.33    1      16.5 
 2 Lower Bar BC  1976     3.81    1       9   
 3 Lower Bar BC  1978     3.82    1.41    8.5 
 4 Lower Bar BC  1981     2.5     1.15    3.45
 5 Lower Bar BC  1983     2.33    1.5     3.88
 6 Lower Bar BC  1985     4.86    1      15.6 
 7 Lower Bar BC  1987     2.61    1.5     5   
 8 Lower Bar BC  1988     2.45    1       5.38
 9 Lower Bar BC  1989     4.81    1      15   
10 Lower Bar BC  1990     4.28    1      14.7 
# ℹ 38 more rows
…
